Data Wrangling (Data Preprocessing) - Boyang Yan's Tech Blog
…
## View the flights data set under the nycflights13 package

nycflights13::flights
### # A tibble: 336,776 x 19
###     year month   day dep_time sched_dep_time dep_delay arr_time sched_arr_time
###    <int> <int> <int>    <int>          <int>     <dbl>    <int>          <int>
###  1  2013     1     1      517            515         2      830            819
###  2  2013     1     1      533            529         4      850            830
###  3  2013     1     1      542            540         2      923            850
###  4  2013     1     1      544            545        -1     1004           1022
###  5  2013     1     1      554            600        -6      812            837
###  6  2013     1     1      554            558        -4      740            728
###  7  2013     1     1      555            600        -5      913            854
###  8  2013     1     1      557            600        -3      709            723
###  9  2013     1     1      557            600        -3      838            846
### 10  2013     1     1      558            600        -2      753            745
### # ... with 336,766 more rows, and 11 more variables: arr_delay <dbl>,
### #   carrier <chr>, flight <int>, tailnum <chr>, origin <chr>, dest <chr>,
### #   air_time <dbl>, distance <dbl>, hour <dbl>, minute <dbl>, time_hour <dttm>
…
## Select columns: year, month and day

select(flights, year, month, day)
### # A tibble: 336,776 x 3
###     year month   day
###    <int> <int> <int>
###  1  2013     1     1
###  2  2013     1     1
###  3  2013     1     1
###  4  2013     1     1
###  5  2013     1     1
###  6  2013     1     1
###  7  2013     1     1
###  8  2013     1     1
###  9  2013     1     1
### 10  2013     1     1
### # ... with 336,766 more rows
…
## Select all columns between year and day (inclusive)

flights %>% select(year:day)
### # A tibble: 336,776 x 3
###     year month   day
###    <int> <int> <int>
###  1  2013     1     1
###  2  2013     1     1
###  3  2013     1     1
###  4  2013     1     1
###  5  2013     1     1
###  6  2013     1     1
###  7  2013     1     1
###  8  2013     1     1
###  9  2013     1     1
### 10  2013     1     1
### # ... with 336,766 more rows
…
## Select all columns except those from year to day (inclusive)

flights %>% select( -(year:day) )
### # A tibble: 336,776 x 16
###    dep_time sched_dep_time dep_delay arr_time sched_arr_time arr_delay carrier
###       <int>          <int>     <dbl>    <int>          <int>     <dbl> <chr>  
###  1      517            515         2      830            819        11 UA     
###  2      533            529         4      850            830        20 UA     
###  3      542            540         2      923            850        33 AA     
###  4      544            545        -1     1004           1022       -18 B6     
###  5      554            600        -6      812            837       -25 DL     
###  6      554            558        -4      740            728        12 UA     
###  7      555            600        -5      913            854        19 B6     
###  8      557            600        -3      709            723       -14 EV     
###  9      557            600        -3      838            846        -8 B6     
### 10      558            600        -2      753            745         8 AA     
### # ... with 336,766 more rows, and 9 more variables: flight <int>,
### #   tailnum <chr>, origin <chr>, dest <chr>, air_time <dbl>, distance <dbl>,
### #   hour <dbl>, minute <dbl>, time_hour <dttm>
…
## Filter the flights on January 1st

flights %>%  filter( month == 1, day == 1)
### # A tibble: 842 x 19
###     year month   day dep_time sched_dep_time dep_delay arr_time sched_arr_time
###    <int> <int> <int>    <int>          <int>     <dbl>    <int>          <int>
###  1  2013     1     1      517            515         2      830            819
###  2  2013     1     1      533            529         4      850            830
###  3  2013     1     1      542            540         2      923            850
###  4  2013     1     1      544            545        -1     1004           1022
###  5  2013     1     1      554            600        -6      812            837
###  6  2013     1     1      554            558        -4      740            728
###  7  2013     1     1      555            600        -5      913            854
###  8  2013     1     1      557            600        -3      709            723
###  9  2013     1     1      557            600        -3      838            846
### 10  2013     1     1      558            600        -2      753            745
### # ... with 832 more rows, and 11 more variables: arr_delay <dbl>,
### #   carrier <chr>, flight <int>, tailnum <chr>, origin <chr>, dest <chr>,
### #   air_time <dbl>, distance <dbl>, hour <dbl>, minute <dbl>, time_hour <dttm>
…
## Filter the flights that aren't delayed (on arrival or departure) by more than two hours

flights %>% filter( arr_delay <= 120, dep_delay <= 120 )
### # A tibble: 316,050 x 19
###     year month   day dep_time sched_dep_time dep_delay arr_time sched_arr_time
###    <int> <int> <int>    <int>          <int>     <dbl>    <int>          <int>
###  1  2013     1     1      517            515         2      830            819
###  2  2013     1     1      533            529         4      850            830
###  3  2013     1     1      542            540         2      923            850
###  4  2013     1     1      544            545        -1     1004           1022
###  5  2013     1     1      554            600        -6      812            837
###  6  2013     1     1      554            558        -4      740            728
###  7  2013     1     1      555            600        -5      913            854
###  8  2013     1     1      557            600        -3      709            723
###  9  2013     1     1      557            600        -3      838            846
### 10  2013     1     1      558            600        -2      753            745
### # ... with 316,040 more rows, and 11 more variables: arr_delay <dbl>,
### #   carrier <chr>, flight <int>, tailnum <chr>, origin <chr>, dest <chr>,
### #   air_time <dbl>, distance <dbl>, hour <dbl>, minute <dbl>, time_hour <dttm>
…
## Order the data set according to three variables

flights %>% arrange( year, month, day )
### # A tibble: 336,776 x 19
###     year month   day dep_time sched_dep_time dep_delay arr_time sched_arr_time
###    <int> <int> <int>    <int>          <int>     <dbl>    <int>          <int>
###  1  2013     1     1      517            515         2      830            819
###  2  2013     1     1      533            529         4      850            830
###  3  2013     1     1      542            540         2      923            850
###  4  2013     1     1      544            545        -1     1004           1022
###  5  2013     1     1      554            600        -6      812            837
###  6  2013     1     1      554            558        -4      740            728
###  7  2013     1     1      555            600        -5      913            854
###  8  2013     1     1      557            600        -3      709            723
###  9  2013     1     1      557            600        -3      838            846
### 10  2013     1     1      558            600        -2      753            745
### # ... with 336,766 more rows, and 11 more variables: arr_delay <dbl>,
### #   carrier <chr>, flight <int>, tailnum <chr>, origin <chr>, dest <chr>,
### #   air_time <dbl>, distance <dbl>, hour <dbl>, minute <dbl>, time_hour <dttm>
…
## Order the data set according to departure time in a descending order

flights %>% arrange( desc(dep_time) )
### # A tibble: 336,776 x 19
###     year month   day dep_time sched_dep_time dep_delay arr_time sched_arr_time
###    <int> <int> <int>    <int>          <int>     <dbl>    <int>          <int>
###  1  2013    10    30     2400           2359         1      327            337
###  2  2013    11    27     2400           2359         1      515            445
###  3  2013    12     5     2400           2359         1      427            440
###  4  2013    12     9     2400           2359         1      432            440
###  5  2013    12     9     2400           2250        70       59           2356
###  6  2013    12    13     2400           2359         1      432            440
###  7  2013    12    19     2400           2359         1      434            440
###  8  2013    12    29     2400           1700       420      302           2025
###  9  2013     2     7     2400           2359         1      432            436
### 10  2013     2     7     2400           2359         1      443            444
### # ... with 336,766 more rows, and 11 more variables: arr_delay <dbl>,
### #   carrier <chr>, flight <int>, tailnum <chr>, origin <chr>, dest <chr>,
### #   air_time <dbl>, distance <dbl>, hour <dbl>, minute <dbl>, time_hour <dttm>
…
## Select specific variables from the data and store them in a new data frame

flights_sub<- flights %>% select(arr_delay, dep_delay, air_time)

## Create new variables "gain", "hours", and "gain_per_hour"

mutate(flights_sub, gain = arr_delay - dep_delay, hours = air_time / 60, gain_per_hour = gain / hours)
### # A tibble: 336,776 x 6
###    arr_delay dep_delay air_time  gain hours gain_per_hour
###        <dbl>     <dbl>    <dbl> <dbl> <dbl>         <dbl>
###  1        11         2      227     9 3.78           2.38
###  2        20         4      227    16 3.78           4.23
###  3        33         2      160    31 2.67          11.6 
###  4       -18        -1      183   -17 3.05          -5.57
###  5       -25        -6      116   -19 1.93          -9.83
###  6        12        -4      150    16 2.5            6.4 
###  7        19        -5      158    24 2.63           9.11
###  8       -14        -3       53   -11 0.883        -12.5 
###  9        -8        -3      140    -5 2.33          -2.14
### 10         8        -2      138    10 2.3            4.35
### # ... with 336,766 more rows
…
transmute(flights, gain = arr_delay - dep_delay, hours = air_time / 60, gain_per_hour = gain / hours)
### # A tibble: 336,776 x 3
###     gain hours gain_per_hour
###    <dbl> <dbl>         <dbl>
###  1     9 3.78           2.38
###  2    16 3.78           4.23
###  3    31 2.67          11.6 
###  4   -17 3.05          -5.57
###  5   -19 1.93          -9.83
###  6    16 2.5            6.4 
###  7    24 2.63           9.11
###  8   -11 0.883        -12.5 
###  9    -5 2.33          -2.14
### 10    10 2.3            4.35
### # ... with 336,766 more rows
…
## Group by destination and use summarise to calculate the mean delay

flights %>% group_by(dest) %>% summarise(mean_delay = mean(dep_delay, na.rm = TRUE))
### `summarise()` ungrouping output (override with `.groups` argument)
### # A tibble: 105 x 2
###    dest  mean_delay
###    <chr>      <dbl>
###  1 ABQ        13.7 
###  2 ACK         6.46
###  3 ALB        23.6 
###  4 ANC        12.9 
###  5 ATL        12.5 
###  6 AUS        13.0 
###  7 AVL         8.19
###  8 BDL        17.7 
###  9 BGR        19.5 
### 10 BHM        29.7 
### # ... with 95 more rows
…
airports
### # A tibble: 1,458 x 8
###    faa   name                       lat    lon   alt    tz dst   tzone          
###    <chr> <chr>                    <dbl>  <dbl> <dbl> <dbl> <chr> <chr>          
###  1 04G   Lansdowne Airport         41.1  -80.6  1044    -5 A     America/New_Yo~
###  2 06A   Moton Field Municipal A~  32.5  -85.7   264    -6 A     America/Chicago
###  3 06C   Schaumburg Regional       42.0  -88.1   801    -6 A     America/Chicago
###  4 06N   Randall Airport           41.4  -74.4   523    -5 A     America/New_Yo~
###  5 09J   Jekyll Island Airport     31.1  -81.4    11    -5 A     America/New_Yo~
###  6 0A9   Elizabethton Municipal ~  36.4  -82.2  1593    -5 A     America/New_Yo~
###  7 0G6   Williams County Airport   41.5  -84.5   730    -5 A     America/New_Yo~
###  8 0G7   Finger Lakes Regional A~  42.9  -76.8   492    -5 A     America/New_Yo~
###  9 0P2   Shoestring Aviation Air~  39.8  -76.6  1000    -5 U     America/New_Yo~
### 10 0S9   Jefferson County Intl     48.1 -123.    108    -8 A     America/Los_An~
### # ... with 1,448 more rows
…
planes
### # A tibble: 3,322 x 9
###    tailnum  year type          manufacturer   model  engines seats speed engine 
###    <chr>   <int> <chr>         <chr>          <chr>    <int> <int> <int> <chr>  
###  1 N10156   2004 Fixed wing m~ EMBRAER        EMB-1~       2    55    NA Turbo-~
###  2 N102UW   1998 Fixed wing m~ AIRBUS INDUST~ A320-~       2   182    NA Turbo-~
###  3 N103US   1999 Fixed wing m~ AIRBUS INDUST~ A320-~       2   182    NA Turbo-~
###  4 N104UW   1999 Fixed wing m~ AIRBUS INDUST~ A320-~       2   182    NA Turbo-~
###  5 N10575   2002 Fixed wing m~ EMBRAER        EMB-1~       2    55    NA Turbo-~
###  6 N105UW   1999 Fixed wing m~ AIRBUS INDUST~ A320-~       2   182    NA Turbo-~
###  7 N107US   1999 Fixed wing m~ AIRBUS INDUST~ A320-~       2   182    NA Turbo-~
###  8 N108UW   1999 Fixed wing m~ AIRBUS INDUST~ A320-~       2   182    NA Turbo-~
###  9 N109UW   1999 Fixed wing m~ AIRBUS INDUST~ A320-~       2   182    NA Turbo-~
### 10 N110UW   1999 Fixed wing m~ AIRBUS INDUST~ A320-~       2   182    NA Turbo-~
### # ... with 3,312 more rows
…
weather
### # A tibble: 26,115 x 15
###    origin  year month   day  hour  temp  dewp humid wind_dir wind_speed
###    <chr>  <int> <int> <int> <int> <dbl> <dbl> <dbl>    <dbl>      <dbl>
###  1 EWR     2013     1     1     1  39.0  26.1  59.4      270      10.4 
###  2 EWR     2013     1     1     2  39.0  27.0  61.6      250       8.06
###  3 EWR     2013     1     1     3  39.0  28.0  64.4      240      11.5 
###  4 EWR     2013     1     1     4  39.9  28.0  62.2      250      12.7 
###  5 EWR     2013     1     1     5  39.0  28.0  64.4      260      12.7 
###  6 EWR     2013     1     1     6  37.9  28.0  67.2      240      11.5 
###  7 EWR     2013     1     1     7  39.0  28.0  64.4      240      15.0 
###  8 EWR     2013     1     1     8  39.9  28.0  62.2      250      10.4 
###  9 EWR     2013     1     1     9  39.9  28.0  62.2      260      15.0 
### 10 EWR     2013     1     1    10  41    28.0  59.6      260      13.8 
### # ... with 26,105 more rows, and 5 more variables: wind_gust <dbl>,
### #   precip <dbl>, pressure <dbl>, visib <dbl>, time_hour <dttm>
…
## Create a new data set named flights2 including year - day, hour, origin, destination, tailnum and carrier variables

flights2 <- flights %>% select(year:day, hour, origin, dest, tailnum, carrier)

flights2
### # A tibble: 336,776 x 8
###     year month   day  hour origin dest  tailnum carrier
###    <int> <int> <int> <dbl> <chr>  <chr> <chr>   <chr>  
###  1  2013     1     1     5 EWR    IAH   N14228  UA     
###  2  2013     1     1     5 LGA    IAH   N24211  UA     
###  3  2013     1     1     5 JFK    MIA   N619AA  AA     
###  4  2013     1     1     5 JFK    BQN   N804JB  B6     
###  5  2013     1     1     6 LGA    ATL   N668DN  DL     
###  6  2013     1     1     5 EWR    ORD   N39463  UA     
###  7  2013     1     1     6 EWR    FLL   N516JB  B6     
###  8  2013     1     1     6 LGA    IAD   N829AS  EV     
###  9  2013     1     1     6 JFK    MCO   N593JB  B6     
### 10  2013     1     1     6 LGA    ORD   N3ALAA  AA     
### # ... with 336,766 more rows
…
## joining flights2 and airlines using the carrier name.

flights2 %>% left_join(airlines, by = "carrier")
### # A tibble: 336,776 x 9
###     year month   day  hour origin dest  tailnum carrier name                    
###    <int> <int> <int> <dbl> <chr>  <chr> <chr>   <chr>   <chr>                   
###  1  2013     1     1     5 EWR    IAH   N14228  UA      United Air Lines Inc.   
###  2  2013     1     1     5 LGA    IAH   N24211  UA      United Air Lines Inc.   
###  3  2013     1     1     5 JFK    MIA   N619AA  AA      American Airlines Inc.  
###  4  2013     1     1     5 JFK    BQN   N804JB  B6      JetBlue Airways         
###  5  2013     1     1     6 LGA    ATL   N668DN  DL      Delta Air Lines Inc.    
###  6  2013     1     1     5 EWR    ORD   N39463  UA      United Air Lines Inc.   
###  7  2013     1     1     6 EWR    FLL   N516JB  B6      JetBlue Airways         
###  8  2013     1     1     6 LGA    IAD   N829AS  EV      ExpressJet Airlines Inc.
###  9  2013     1     1     6 JFK    MCO   N593JB  B6      JetBlue Airways         
### 10  2013     1     1     6 LGA    ORD   N3ALAA  AA      American Airlines Inc.  
### # ... with 336,766 more rows
…
## joining flights2 and weather using the default key = NULL.

flights2 %>% left_join(weather)
### Joining, by = c("year", "month", "day", "hour", "origin")
### # A tibble: 336,776 x 18
###     year month   day  hour origin dest  tailnum carrier  temp  dewp humid
###    <int> <int> <int> <dbl> <chr>  <chr> <chr>   <chr>   <dbl> <dbl> <dbl>
###  1  2013     1     1     5 EWR    IAH   N14228  UA       39.0  28.0  64.4
###  2  2013     1     1     5 LGA    IAH   N24211  UA       39.9  25.0  54.8
###  3  2013     1     1     5 JFK    MIA   N619AA  AA       39.0  27.0  61.6
###  4  2013     1     1     5 JFK    BQN   N804JB  B6       39.0  27.0  61.6
###  5  2013     1     1     6 LGA    ATL   N668DN  DL       39.9  25.0  54.8
###  6  2013     1     1     5 EWR    ORD   N39463  UA       39.0  28.0  64.4
###  7  2013     1     1     6 EWR    FLL   N516JB  B6       37.9  28.0  67.2
###  8  2013     1     1     6 LGA    IAD   N829AS  EV       39.9  25.0  54.8
###  9  2013     1     1     6 JFK    MCO   N593JB  B6       37.9  27.0  64.3
### 10  2013     1     1     6 LGA    ORD   N3ALAA  AA       39.9  25.0  54.8
### # ... with 336,766 more rows, and 7 more variables: wind_dir <dbl>,
### #   wind_speed <dbl>, wind_gust <dbl>, precip <dbl>, pressure <dbl>,
### #   visib <dbl>, time_hour <dttm>
…
## joining flights2 and planes using the tailnum.

flights2 %>% left_join(planes, by = "tailnum")
### # A tibble: 336,776 x 16
###    year.x month   day  hour origin dest  tailnum carrier year.y type 
###     <int> <int> <int> <dbl> <chr>  <chr> <chr>   <chr>    <int> <chr>
###  1   2013     1     1     5 EWR    IAH   N14228  UA        1999 Fixe~
###  2   2013     1     1     5 LGA    IAH   N24211  UA        1998 Fixe~
###  3   2013     1     1     5 JFK    MIA   N619AA  AA        1990 Fixe~
###  4   2013     1     1     5 JFK    BQN   N804JB  B6        2012 Fixe~
###  5   2013     1     1     6 LGA    ATL   N668DN  DL        1991 Fixe~
###  6   2013     1     1     5 EWR    ORD   N39463  UA        2012 Fixe~
###  7   2013     1     1     6 EWR    FLL   N516JB  B6        2000 Fixe~
###  8   2013     1     1     6 LGA    IAD   N829AS  EV        1998 Fixe~
###  9   2013     1     1     6 JFK    MCO   N593JB  B6        2004 Fixe~
### 10   2013     1     1     6 LGA    ORD   N3ALAA  AA          NA <NA> 
### # ... with 336,766 more rows, and 6 more variables: manufacturer <chr>,
### #   model <chr>, engines <int>, seats <int>, speed <int>, engine <chr>
…
